{
    "AWSTemplateFormatVersion": "2010-09-09",
    "Description": "Creates application layer components. Includes: autoscaling group, elastic load balancer, database instance",
    "Mappings": {
        "RegionToAMIMapping": {
            "ap-northeast-1": {
                "AMI": ""
            },
            "ap-southeast-1": {
                "AMI": "ami-1c2e887f"
            },
            "ap-southeast-2": {
                "AMI": ""
            },
            "eu-west-1": {
                "AMI": "ami-d41d58a7"
            }
        }
    },
    "Parameters": {
        "AMIIDParam": {
            "Description": "AMI ID",
            "Type": "String"
        },
        "DBPasswordParam": {
            "Description": "Database password",
            "Type": "String"
        },
        "DBUsernameParam": {
            "Description": "Database username",
            "Type": "String"
        },
        "DNSParam": {
            "Description": "Choose hosted zone ID",
            "Type": "AWS::Route53::HostedZone::Id"
        },
        "ELBSubnetParam": {
            "Description": "Choose public subnet: ",
            "Type": "AWS::EC2::Subnet::Id"
        },
        "HZNameParam": {
            "Description": "Name of hosted zone",
            "Type": "String"
        },
        "JumphostSubnetParam": {
            "Description": "Choose public subnet for jumphost: ",
            "Type": "AWS::EC2::Subnet::Id"
        },
        "KeyPairParam": {
            "Description": "Choose key name: ",
            "Type": "AWS::EC2::KeyPair::KeyName"
        },
        "VPCParam": {
            "Description": "Choose VPC: ",
            "Type": "AWS::EC2::VPC::Id"
        }
    },
    "Resources": {
        "ASGLaunchConfig": {
            "Properties": {
                "AssociatePublicIpAddress": "true",
                "EbsOptimized": "false",
                "ImageId": {
                    "Ref": "AMIIDParam"
                },
                "InstanceType": "t2.micro",
                "KeyName": {
                    "Ref": "KeyPairParam"
                }
            },
            "Type": "AWS::AutoScaling::LaunchConfiguration"
        },
        "AutoscalingGroup": {
            "Properties": {
                "LaunchConfigurationName": {
                    "Ref": "ASGLaunchConfig"
                },
                "LoadBalancerNames": [
                    {
                        "Ref": "ElasticLoadBalancer"
                    }
                ],
                "MaxSize": "5",
                "MinSize": "2",
                "Tags": [
                    {
                        "Key": "Name",
                        "PropagateAtLaunch": "true",
                        "Value": "Tristan-Autoscaling group"
                    }
                ],
                "VPCZoneIdentifier": [
                    {
                        "Ref": "ELBSubnetParam"
                    }
                ]
            },
            "Type": "AWS::AutoScaling::AutoScalingGroup",
            "UpdatePolicy": {
                "AutoScalingRollingUpdate": {
                    "MinInstancesInService": "1"
                }
            }
        },
        "DBMaster": {
            "Properties": {
                "AllocatedStorage": "100",
                "DBInstanceClass": "db.t2.small",
                "DBName": "TristanDBMaster",
                "DBSecurityGroups": [
                    {
                        "Ref": "dbsg"
                    }
                ],
                "DBSubnetGroupName": {
                    "Fn::ImportValue": "TristanDBSubnetGroup"
                },
                "Engine": "MySQL",
                "EngineVersion": "5.6.27",
                "MasterUserPassword": {
                    "Ref": "DBPasswordParam"
                },
                "MasterUsername": {
                    "Ref": "DBUsernameParam"
                },
                "MultiAZ": "true",
                "PubliclyAccessible": "false"
            },
            "Type": "AWS::RDS::DBInstance"
        },
        "DBSGIngress": {
            "Properties": {
                "DBSecurityGroupName": {
                    "Ref": "dbsg"
                },
                "EC2SecurityGroupId": {
                    "Ref": "ec2DBsg"
                }
            },
            "Type": "AWS::RDS::DBSecurityGroupIngress"
        },
        "EC2DBSGIngress": {
            "Properties": {
                "FromPort": "1433",
                "GroupId": {
                    "Ref": "ec2DBsg"
                },
                "IpProtocol": "tcp",
                "SourceSecurityGroupId": {
                    "Ref": "LaunchConfigSG"
                },
                "ToPort": "1433"
            },
            "Type": "AWS::EC2::SecurityGroupIngress"
        },
        "ELBSGIngress": {
            "Properties": {
                "CidrIp": "0.0.0.0/0",
                "FromPort": "80",
                "GroupId": {
                    "Ref": "elbsg"
                },
                "IpProtocol": "tcp",
                "ToPort": "80"
            },
            "Type": "AWS::EC2::SecurityGroupIngress"
        },
        "ElasticLoadBalancer": {
            "Properties": {
                "CrossZone": "true",
                "Listeners": [
                    {
                        "InstancePort": 80,
                        "InstanceProtocol": "HTTP",
                        "LoadBalancerPort": 80,
                        "Protocol": "HTTP"
                    }
                ],
                "LoadBalancerName": "Tristan-LoadBalancer",
                "SecurityGroups": [
                    {
                        "Ref": "elbsg"
                    }
                ],
                "Subnets": [
                    {
                        "Fn::ImportValue": "TristanPublicSubnet1"
                    },
                    {
                        "Fn::ImportValue": "TristanPublicSubnet2"
                    }
                ],
                "Tags": [
                    {
                        "Key": "Name",
                        "Value": "Tristan-ElasticLoadBalancer"
                    },
                    {
                        "Key": "Owner",
                        "Value": "tristan.metcalfe@cloudreach.com"
                    }
                ]
            },
            "Type": "AWS::ElasticLoadBalancing::LoadBalancer"
        },
        "IngressHTTP": {
            "Properties": {
                "FromPort": "80",
                "GroupId": {
                    "Ref": "LaunchConfigSG"
                },
                "IpProtocol": "tcp",
                "SourceSecurityGroupId": {
                    "Ref": "elbsg"
                },
                "ToPort": "80"
            },
            "Type": "AWS::EC2::SecurityGroupIngress"
        },
        "Jumphost": {
            "Properties": {
                "AvailabilityZone": "",
                "EbsOptimized": "false",
                "ImageId": "ami-b953f2da",
                "InstanceType": "t2.micro",
                "KeyName": {
                    "Ref": "KeyPairParam"
                },
                "NetworkInterfaces": [
                    {
                        "AssociatePublicIpAddress": "true",
                        "DeviceIndex": "0",
                        "GroupSet": [
                            {
                                "Ref": "JumphostSG"
                            }
                        ],
                        "SubnetId": {
                            "Ref": "JumphostSubnetParam"
                        }
                    }
                ],
                "Tags": [
                    {
                        "Key": "Name",
                        "Value": "Tristan-Jumphost"
                    }
                ]
            },
            "Type": "AWS::EC2::Instance"
        },
        "JumphostSG": {
            "Properties": {
                "GroupDescription": "Security group for jumphost",
                "SecurityGroupEgress": [],
                "SecurityGroupIngress": [],
                "Tags": [
                    {
                        "Key": "Name",
                        "Value": "Tristan-Jumphost-SG"
                    },
                    {
                        "Key": "Owner",
                        "Value": "tristan.metcalfe@cloudreach.com"
                    }
                ],
                "VpcId": {
                    "Ref": "VPCParam"
                }
            },
            "Type": "AWS::EC2::SecurityGroup"
        },
        "JumphostSGIngressSSH": {
            "Properties": {
                "CidrIp": "0.0.0.0/0",
                "FromPort": "22",
                "GroupId": {
                    "Ref": "JumphostSG"
                },
                "IpProtocol": "tcp",
                "ToPort": "22"
            },
            "Type": "AWS::EC2::SecurityGroupIngress"
        },
        "LaunchConfigSG": {
            "Properties": {
                "GroupDescription": "Security group for autoscaling",
                "SecurityGroupEgress": [],
                "SecurityGroupIngress": [],
                "Tags": [
                    {
                        "Key": "Name",
                        "Value": "Tristan-Private-Autoscaling-SG"
                    },
                    {
                        "Key": "Owner",
                        "Value": "tristan.metcalfe@cloudreach.com"
                    }
                ],
                "VpcId": {
                    "Ref": "VPCParam"
                }
            },
            "Type": "AWS::EC2::SecurityGroup"
        },
        "PrivateInstanceSGIngressSSH": {
            "Properties": {
                "FromPort": "22",
                "GroupId": {
                    "Ref": "LaunchConfigSG"
                },
                "IpProtocol": "tcp",
                "SourceSecurityGroupId": {
                    "Ref": "JumphostSG"
                },
                "ToPort": "22"
            },
            "Type": "AWS::EC2::SecurityGroupIngress"
        },
        "dbsg": {
            "Properties": {
                "DBSecurityGroupIngress": [],
                "EC2VpcId": {
                    "Ref": "VPCParam"
                },
                "GroupDescription": "Security group for DB",
                "Tags": [
                    {
                        "Key": "Name",
                        "Value": "Tristan-DB-SG"
                    },
                    {
                        "Key": "Owner",
                        "Value": "tristan.metcalfe@cloudreach.com"
                    }
                ]
            },
            "Type": "AWS::RDS::DBSecurityGroup"
        },
        "ec2DBsg": {
            "Properties": {
                "GroupDescription": "Security group for DB",
                "SecurityGroupEgress": [],
                "SecurityGroupIngress": [],
                "Tags": [
                    {
                        "Key": "Name",
                        "Value": "Tristan-DB-SG"
                    },
                    {
                        "Key": "Owner",
                        "Value": "tristan.metcalfe@cloudreach.com"
                    }
                ],
                "VpcId": {
                    "Ref": "VPCParam"
                }
            },
            "Type": "AWS::EC2::SecurityGroup"
        },
        "elbsg": {
            "Properties": {
                "GroupDescription": "Security group for ELB",
                "SecurityGroupEgress": [],
                "SecurityGroupIngress": [],
                "Tags": [
                    {
                        "Key": "Name",
                        "Value": "Tristan-ELB-SG"
                    },
                    {
                        "Key": "Owner",
                        "Value": "tristan.metcalfe@cloudreach.com"
                    }
                ],
                "VpcId": {
                    "Ref": "VPCParam"
                }
            },
            "Type": "AWS::EC2::SecurityGroup"
        }
    }
}
